{"photos":{"page":1,"pages":10045,"perpage":100,"total":"1004489","photo":[{"id":"49894807302","owner":"151883153@N02","secret":"80e03e114b","server":"65535","farm":66,"title":"Cat-titude","ispublic":1,"isfriend":0,"isfamily":0},{"id":"49893876713","owner":"7168480@N02","secret":"6f84caeef0","server":"65535","farm":66,"title":"Puck being cooperative","ispublic":1,"isfriend":0,"isfamily":0},{"id":"49893676688","owner":"31984487@N00","secret":"0b2e4f5aea","server":"65535","farm":66,"title":"Oh Fred! Ay Federico!","ispublic":1,"isfriend":0,"isfamily":0},{"id":"49893948481","owner":"33244024@N06","secret":"10f1432d39","server":"65535","farm":66,"title":"Van Cat","ispublic":1,"isfriend":0,"isfamily":0},{"id":"49893791141","owner":"94708785@N03","secret":"64946f604d","server":"65535","farm":66,"title":"\u2665","ispublic":1,"isfriend":0,"isfamily":0},{"id":"49893260978","owner":"188428887@N07","secret":"f1abe1a2ee","server":"65535","farm":66,"title":"Simplemente bufi","ispublic":1,"isfriend":0,"isfamily":0},{"id":"49893987662","owner":"187429293@N05","secret":"94e2d3ba48","server":"65535","farm":66,"title":"Tvrdalj's guardian kitty","ispublic":1,"isfriend":0,"isfamily":0},{"id":"49893079088","owner":"187429293@N05","secret":"f531d0ac24","server":"65535","farm":66,"title":"Buddy's message...","ispublic":1,"isfriend":0,"isfamily":0},{"id":"49892655773","owner":"187799995@N02","secret":"c51e4165e1","server":"65535","farm":66,"title":"Layla","ispublic":1,"isfriend":0,"isfamily":0},{"id":"49893096936","owner":"46097811@N03","secret":"f61b7a5c85","server":"65535","farm":66,"title":"Victor","ispublic":1,"isfriend":0,"isfamily":0},{"id":"49893207872","owner":"146375971@N04","secret":"419a58e919","server":"65535","farm":66,"title":"Cuddle Love","ispublic":1,"isfriend":0,"isfamily":0},{"id":"49892802116","owner":"46097811@N03","secret":"222cf7cbce","server":"65535","farm":66,"title":"Victor Yawning","ispublic":1,"isfriend":0,"isfamily":0},{"id":"49892380232","owner":"25101853@N00","secret":"b73ed9bfb1","server":"65535","farm":66,"title":"DSCN5902","ispublic":1,"isfriend":0,"isfamily":0},{"id":"49892067101","owner":"25101853@N00","secret":"e5eb7c84b3","server":"65535","farm":66,"title":"DSCN5902","ispublic":1,"isfriend":0,"isfamily":0},{"id":"49891553053","owner":"25101853@N00","secret":"2d6a352f5f","server":"65535","farm":66,"title":"DSCN5901","ispublic":1,"isfriend":0,"isfamily":0},{"id":"49891398811","owner":"125208863@N02","secret":"f76c1d1fda","server":"65535","farm":66,"title":"134\/366","ispublic":1,"isfriend":0,"isfamily":0},{"id":"49892059027","owner":"141469787@N07","secret":"58bffec6e2","server":"65535","farm":66,"title":"demon | Clover \/\/ Candy Kitten \/\/ Demon Doll \/\/ Olive \/\/ Pitaya \/\/ Lyrium","ispublic":1,"isfriend":0,"isfamily":0},{"id":"49891190613","owner":"51388540@N05","secret":"9d1473982b","server":"65535","farm":66,"title":"8473 - Caprica","ispublic":1,"isfriend":0,"isfamily":0},{"id":"49891929297","owner":"51388540@N05","secret":"311b38b63b","server":"65535","farm":66,"title":"8411 - Foundlings","ispublic":1,"isfriend":0,"isfamily":0},{"id":"49891497707","owner":"78454913@N00","secret":"4d0e979a2c","server":"65535","farm":66,"title":"Black Cat","ispublic":1,"isfriend":0,"isfamily":0},{"id":"49891208242","owner":"138171302@N03","secret":"6a7273b014","server":"65535","farm":66,"title":"Because","ispublic":1,"isfriend":0,"isfamily":0},{"id":"49890490116","owner":"153412956@N05","secret":"da521df237","server":"65535","farm":66,"title":"Baby Shorty","ispublic":1,"isfriend":0,"isfamily":0},{"id":"49890690527","owner":"182425379@N02","secret":"937803fb3d","server":"65535","farm":66,"title":"IIs it Friday yet?","ispublic":1,"isfriend":0,"isfamily":0},{"id":"49889667703","owner":"76958872@N05","secret":"cefe36a6bf","server":"65535","farm":66,"title":"family-time","ispublic":1,"isfriend":0,"isfamily":0},{"id":"49890489412","owner":"22419581@N06","secret":"84fdc293f2","server":"65535","farm":66,"title":"Dusty \ud83d\ude3b and Almost 1 years old! #mainecoonsofinstagram #almost1 #kittenoftheday #meow #catsinwindows #catphoto #blackmainecoon #catloaf #catlovers #mainecoonlovers #maine_coon","ispublic":1,"isfriend":0,"isfamily":0},{"id":"49889546923","owner":"80682954@N00","secret":"4433dc8607","server":"65535","farm":66,"title":"Olive 2013","ispublic":1,"isfriend":0,"isfamily":0},{"id":"49889453968","owner":"47963823@N07","secret":"40618a0287","server":"65535","farm":66,"title":"Jazz hands","ispublic":1,"isfriend":0,"isfamily":0},{"id":"49889702311","owner":"65155009@N00","secret":"896f6bb882","server":"65535","farm":66,"title":"Baby Rabbit","ispublic":1,"isfriend":0,"isfamily":0},{"id":"49889183313","owner":"65155009@N00","secret":"c424e01941","server":"65535","farm":66,"title":"Baby Rabbit","ispublic":1,"isfriend":0,"isfamily":0},{"id":"49889952892","owner":"35664133@N05","secret":"531c633974","server":"65535","farm":66,"title":"Neighbor Cat","ispublic":1,"isfriend":0,"isfamily":0},{"id":"49889515267","owner":"33083567@N02","secret":"ed3cf5ed8e","server":"65535","farm":66,"title":"Feline Family","ispublic":1,"isfriend":0,"isfamily":0},{"id":"49889450767","owner":"182425379@N02","secret":"cf4342c45c","server":"65535","farm":66,"title":"Cat in a Blanket","ispublic":1,"isfriend":0,"isfamily":0},{"id":"49887968211","owner":"51388540@N05","secret":"6fd249e4e1","server":"65535","farm":66,"title":"8439 - Sleepy foundlings","ispublic":1,"isfriend":0,"isfamily":0},{"id":"49887345628","owner":"19872565@N00","secret":"2e96a205f2","server":"65535","farm":66,"title":"20190210_5425c","ispublic":1,"isfriend":0,"isfamily":0},{"id":"49887239648","owner":"13212912@N00","secret":"b587c5bcec","server":"65535","farm":66,"title":"Photo of the day: 11.5.2020","ispublic":1,"isfriend":0,"isfamily":0},{"id":"49888066897","owner":"13212912@N00","secret":"afe2c59575","server":"65535","farm":66,"title":"Sink cat","ispublic":1,"isfriend":0,"isfamily":0},{"id":"49888066257","owner":"13212912@N00","secret":"dc5573de7e","server":"65535","farm":66,"title":"Salem + giant box","ispublic":1,"isfriend":0,"isfamily":0},{"id":"49888062697","owner":"13212912@N00","secret":"d07cd1a8dd","server":"65535","farm":66,"title":"Photo of the day: 8.5.2020","ispublic":1,"isfriend":0,"isfamily":0},{"id":"49887815896","owner":"91280126@N05","secret":"aa4eac995c","server":"65535","farm":66,"title":"hidden treasure","ispublic":1,"isfriend":0,"isfamily":0},{"id":"49887160906","owner":"188472135@N08","secret":"b144683a02","server":"65535","farm":66,"title":"Little Kitty","ispublic":1,"isfriend":0,"isfamily":0},{"id":"49887414657","owner":"87642046@N00","secret":"072bed94dd","server":"65535","farm":66,"title":"Day 129 - Blue Eyes","ispublic":1,"isfriend":0,"isfamily":0},{"id":"49887411652","owner":"87642046@N00","secret":"ef4bf6b6fc","server":"65535","farm":66,"title":"Day 127 - Family","ispublic":1,"isfriend":0,"isfamily":0},{"id":"49887094966","owner":"87642046@N00","secret":"6b4c4e7f9d","server":"65535","farm":66,"title":"Day 132 - Flat cat","ispublic":1,"isfriend":0,"isfamily":0},{"id":"49887093406","owner":"87642046@N00","secret":"35ffe33af5","server":"65535","farm":66,"title":"Dat 130 - Bundle of kittens","ispublic":1,"isfriend":0,"isfamily":0},{"id":"49887405962","owner":"87642046@N00","secret":"02eae8bc03","server":"65535","farm":66,"title":"Day 131 - Obsession","ispublic":1,"isfriend":0,"isfamily":0},{"id":"49886473363","owner":"148138455@N06","secret":"18e89e00ab","server":"65535","farm":66,"title":"Behind Bars","ispublic":1,"isfriend":0,"isfamily":0},{"id":"49886371603","owner":"34725795@N00","secret":"f9ae0cee89","server":"65535","farm":66,"title":"_SDI3633a","ispublic":1,"isfriend":0,"isfamily":0},{"id":"49885941983","owner":"92655017@N02","secret":"6e759d473e","server":"65535","farm":66,"title":". . @prilaga #catoftheday #sleeping #fun #petsagram #kitty #smile #instagramcats #adorable #catlover #furry #kittens #instacat #cats #catstagram #lovecats #catsagram #ilovemycat #instagood #animal #photooftheday #animals #nice #lovekittens #cat #kitten #p","ispublic":1,"isfriend":0,"isfamily":0},{"id":"49886080836","owner":"94367390@N04","secret":"7fc6b2f5fa","server":"65535","farm":66,"title":"1.310 - Vicky","ispublic":1,"isfriend":0,"isfamily":0},{"id":"49885003838","owner":"21331993@N05","secret":"571e3fdcd6","server":"65535","farm":66,"title":"IMG_2372","ispublic":1,"isfriend":0,"isfamily":0},{"id":"49884986663","owner":"33244024@N06","secret":"c291802c44","server":"65535","farm":66,"title":"Cat Close-Up","ispublic":1,"isfriend":0,"isfamily":0},{"id":"49885772932","owner":"186918920@N04","secret":"5915e0ca5e","server":"65535","farm":66,"title":"Caringbah Vet","ispublic":1,"isfriend":0,"isfamily":0},{"id":"49885565267","owner":"144887872@N06","secret":"e9ee916c16","server":"65535","farm":66,"title":"4G4A2195","ispublic":1,"isfriend":0,"isfamily":0},{"id":"49884732088","owner":"144887872@N06","secret":"6554c1bba0","server":"65535","farm":66,"title":"Confused Newborn Kitten Black","ispublic":1,"isfriend":0,"isfamily":0},{"id":"49884731658","owner":"144887872@N06","secret":"0e1d971fc8","server":"65535","farm":66,"title":"4G4A2192","ispublic":1,"isfriend":0,"isfamily":0},{"id":"49885253456","owner":"144887872@N06","secret":"3443582fde","server":"65535","farm":66,"title":"The Most relaxed cat on earth","ispublic":1,"isfriend":0,"isfamily":0},{"id":"49885489997","owner":"136583535@N04","secret":"2897bbfef0","server":"65535","farm":66,"title":"Blue eye","ispublic":1,"isfriend":0,"isfamily":0},{"id":"49885151611","owner":"146764874@N08","secret":"539de0d474","server":"65535","farm":66,"title":"Weighing Heavily On His Mind","ispublic":1,"isfriend":0,"isfamily":0},{"id":"49885124472","owner":"15742277@N04","secret":"9a7dfa11b7","server":"65535","farm":66,"title":"Two Of A Kind","ispublic":1,"isfriend":0,"isfamily":0},{"id":"49884365451","owner":"51388540@N05","secret":"a05f3c104e","server":"65535","farm":66,"title":"8405 - Foundlings","ispublic":1,"isfriend":0,"isfamily":0},{"id":"49884537607","owner":"51388540@N05","secret":"e6ea5ac189","server":"65535","farm":66,"title":"8406 - Caprica","ispublic":1,"isfriend":0,"isfamily":0},{"id":"49884066876","owner":"185294426@N07","secret":"4a0b299471","server":"65535","farm":66,"title":"Adorable orange kitten in cardboard box","ispublic":1,"isfriend":0,"isfamily":0},{"id":"49884066736","owner":"185294426@N07","secret":"33a4237cab","server":"65535","farm":66,"title":"Adorable orange kitten in cardboard box","ispublic":1,"isfriend":0,"isfamily":0},{"id":"49882875443","owner":"8185859@N08","secret":"9a854c2e99","server":"65535","farm":66,"title":"Lilli","ispublic":1,"isfriend":0,"isfamily":0},{"id":"49883102551","owner":"24109458@N06","secret":"c0abffc912","server":"65535","farm":66,"title":"Vicky","ispublic":1,"isfriend":0,"isfamily":0},{"id":"49882776231","owner":"185320142@N04","secret":"a3fd85b9c5","server":"65535","farm":66,"title":"Pretty Kitty","ispublic":1,"isfriend":0,"isfamily":0},{"id":"49881990233","owner":"39683033@N08","secret":"babf294f0d","server":"65535","farm":66,"title":"Mandy Monday: Brooding","ispublic":1,"isfriend":0,"isfamily":0},{"id":"49881475328","owner":"187801432@N04","secret":"0d93be31ea","server":"65535","farm":66,"title":"\uacf5\ubd80\ubc29\ud574\ud558\ub294 \uace0\uc591\uc774 \uc878\uadc0 \ub0e5\uc774","ispublic":1,"isfriend":0,"isfamily":0},{"id":"49881073601","owner":"186862715@N06","secret":"e288d77403","server":"65535","farm":66,"title":"there's some love happening here","ispublic":1,"isfriend":0,"isfamily":0},{"id":"49880644601","owner":"42128853@N07","secret":"376a9267b3","server":"65535","farm":66,"title":"Miss Pretty.","ispublic":1,"isfriend":0,"isfamily":0},{"id":"49880712807","owner":"54004146@N00","secret":"4cb5fcd9b1","server":"65535","farm":66,"title":"Stray kitties","ispublic":1,"isfriend":0,"isfamily":0},{"id":"49880404181","owner":"54004146@N00","secret":"45f226c2f5","server":"65535","farm":66,"title":"Stray kitties","ispublic":1,"isfriend":0,"isfamily":0},{"id":"49879875658","owner":"54004146@N00","secret":"350b348e90","server":"65535","farm":66,"title":"Stray kitties","ispublic":1,"isfriend":0,"isfamily":0},{"id":"49880712247","owner":"54004146@N00","secret":"acaf226089","server":"65535","farm":66,"title":"Stray kitties","ispublic":1,"isfriend":0,"isfamily":0},{"id":"49879875328","owner":"54004146@N00","secret":"deea77ba32","server":"65535","farm":66,"title":"Stray kitties","ispublic":1,"isfriend":0,"isfamily":0},{"id":"49879875053","owner":"54004146@N00","secret":"10e18e70a6","server":"65535","farm":66,"title":"Stray kitties","ispublic":1,"isfriend":0,"isfamily":0},{"id":"49879822888","owner":"51388540@N05","secret":"078ca16a90","server":"65535","farm":66,"title":"8365 - Gaius","ispublic":1,"isfriend":0,"isfamily":0},{"id":"49880658827","owner":"98395686@N07","secret":"67cca39f37","server":"65535","farm":66,"title":"Mother\u2019s Arms","ispublic":1,"isfriend":0,"isfamily":0},{"id":"49880300281","owner":"60261913@N00","secret":"ac31f2afa7","server":"65535","farm":66,"title":"baby cougar - Cincinnati Zoo (2010)","ispublic":1,"isfriend":0,"isfamily":0},{"id":"49880283132","owner":"51388540@N05","secret":"4f1c0c5cf5","server":"65535","farm":66,"title":"8472 - Caprica","ispublic":1,"isfriend":0,"isfamily":0},{"id":"49879748236","owner":"171244695@N05","secret":"e694a675ea","server":"65535","farm":66,"title":"\u2022 woodsy \u2022","ispublic":1,"isfriend":0,"isfamily":0},{"id":"49878670988","owner":"31496313@N00","secret":"65b86c45b7","server":"65535","farm":66,"title":"Shetti \/\/ Woningsdag","ispublic":1,"isfriend":0,"isfamily":0},{"id":"49879007931","owner":"29711429@N02","secret":"9c99bb6cfc","server":"65535","farm":66,"title":"Peekaboo 2","ispublic":1,"isfriend":0,"isfamily":0},{"id":"49878384748","owner":"187937781@N04","secret":"952d487ed9","server":"65535","farm":66,"title":"Ringo (kitten)","ispublic":1,"isfriend":0,"isfamily":0},{"id":"49878669506","owner":"137804205@N02","secret":"091c9a4291","server":"65535","farm":66,"title":".:Short Leash:. Kit's Collar","ispublic":1,"isfriend":0,"isfamily":0},{"id":"49878481341","owner":"119669462@N02","secret":"864c7ed9a0","server":"65535","farm":66,"title":"Yasmin20200510 (12)","ispublic":1,"isfriend":0,"isfamily":0},{"id":"49877914527","owner":"123600876@N07","secret":"5f9cfbd5fd","server":"65535","farm":66,"title":"Wil","ispublic":1,"isfriend":0,"isfamily":0},{"id":"49876958428","owner":"128753278@N03","secret":"7aab737ecc","server":"65535","farm":66,"title":"Next door's kitty","ispublic":1,"isfriend":0,"isfamily":0},{"id":"49876877783","owner":"34646324@N08","secret":"b9365619e0","server":"0","farm":0,"title":"Please adopt this family!","ispublic":1,"isfriend":0,"isfamily":0},{"id":"49877359321","owner":"184307436@N07","secret":"83de6142ef","server":"65535","farm":66,"title":"Tug of War!","ispublic":1,"isfriend":0,"isfamily":0},{"id":"49876812233","owner":"184307436@N07","secret":"e67be3d9b3","server":"65535","farm":66,"title":"Bites the Yarn, Licks the Yarn","ispublic":1,"isfriend":0,"isfamily":0},{"id":"49876701863","owner":"143537090@N02","secret":"83f74d0695","server":"65535","farm":66,"title":"Brown Tabby Cat","ispublic":1,"isfriend":0,"isfamily":0},{"id":"49877480082","owner":"135162570@N03","secret":"bc452561c4","server":"65535","farm":66,"title":"Anfisa - 7 month female DSH","ispublic":1,"isfriend":0,"isfamily":0},{"id":"49877470652","owner":"135162570@N03","secret":"1fd5a1bec1","server":"65535","farm":66,"title":"Choco - 5 month female mix","ispublic":1,"isfriend":0,"isfamily":0},{"id":"49876051178","owner":"185658584@N06","secret":"a41a674a99","server":"65535","farm":66,"title":"N a l a \u2764\ufe0f #kitten #kitty","ispublic":1,"isfriend":0,"isfamily":0},{"id":"49890918561","owner":"61969044@N07","secret":"662a9e5fb2","server":"65535","farm":66,"title":"kitten","ispublic":1,"isfriend":0,"isfamily":0},{"id":"49877611402","owner":"135162570@N03","secret":"6a8ea0a21d","server":"65535","farm":66,"title":"Flora and Sunny - 6 month female maus","ispublic":1,"isfriend":0,"isfamily":0},{"id":"49876051138","owner":"185658584@N06","secret":"b3c3770eb4","server":"65535","farm":66,"title":"N a l a \u2764\ufe0f #kitten #kitty","ispublic":1,"isfriend":0,"isfamily":0},{"id":"49876587751","owner":"185658584@N06","secret":"fb6a4e2b26","server":"65535","farm":66,"title":"N a l a \u2764\ufe0f #kitten #kitty","ispublic":1,"isfriend":0,"isfamily":0},{"id":"49876050903","owner":"185658584@N06","secret":"eeba53266b","server":"65535","farm":66,"title":"N a l a \u2764\ufe0f #kitten #kitty","ispublic":1,"isfriend":0,"isfamily":0}]},"stat":"ok"}
